…
##load the data and arrange in order by director to get an overview 
df <- movies %>%
      count(director) %>%
      arrange(desc(n))

## Warning: `count_()` is deprecated as of dplyr 0.7.0.
## Please use `count()` instead.
## See vignette('programming') for more help
## This warning is displayed once every 8 hours.
## Call `lifecycle::last_warnings()` to see where this warning was generated.

df 

## # A tibble: 1,366 x 2
##    director              n
##    <chr>             <int>
##  1 Steven Spielberg     23
##  2 Clint Eastwood       19
##  3 Martin Scorsese      16
##  4 Tim Burton           16
##  5 Spike Lee            15
##  6 Steven Soderbergh    15
##  7 Woody Allen          15
##  8 Renny Harlin         14
##  9 Ridley Scott         14
## 10 Barry Levinson       13
## # … with 1,356 more rows
…
